
{
    "English":{
        "x1":"CHANGE PASSWORD",
        "x2":"Done",
        "x3":"Cencel",
        "x4":"Current Password cann't be empty",
        "x5":"New Password cann't be empty",
        "x6":"Confirm New Password cann't be empty",
        "x7":"Current password invalid",
        "x8":"new password invalid",
        "x9":"new password and confirm new password not equal ",
        "x10":"Error!",
        "x11":"Current Password",
        "x12":"New Password",
        "x13": "Confirm New Password"
        
    },
    "Arabic":{
        "x1":"تغيير كلمة السر",
        "x2":"حفظ",
        "x3":"الغاء",
        "x4":"ادخل كلمة السر",
        "x5":"ادخل كلمة السر الجديدة",
        "x6":"اعد ادخال كلمة السر الجديدة",
        "x7":"كلمة مرور غير صالحة",
        "x8":"كلمة المرور الجديدة غير صالحة",
        "x9":"غير متطابقين",
        "x10":"حدث خطأ ما",
        "x11":"كلمة السر الحالية",
        "x12":"كلمة السر الجديدة",
        "x13": "تأكيد كلمة السر الجديدة"
    }
}