
  
  {
    "English":{
      "x1":"Navigate to nearest hospital ?",
      "x2":"CANCEL",
      "x3":"OK",
      "x4":"Navigate to nearest police ?",
      "x5":"Please, wait..."

    },
    "Arabic":{
      "x1":"التوجهه الى اقرب مستشفى؟",
      "x2":"الغاء",
      "x3":"حسنا",
      "x4":"التوحهه الى أقرب مركز شرطة؟",
      "x5":"من فضلك انتظر ..."
    }
 }
  